doc/Pendulum Impact Test Data/Waterfall Data/TEK0006.CSV

Record Length,2.500000e+03,, -12.500000000000,   0.04000,
Sample Interval,1.000000e-02,, -12.490000000000,   0.02000,
Trigger Point,1.250000000000e+03,, -12.480000000000,   0.02000,
,,, -12.470000000000,   0.02000,
,,, -12.460000000000,   0.02000,
,,, -12.450000000000,   0.02000,
Source,CH1,, -12.440000000000,   0.02000,
Vertical Units,V,, -12.430000000000,   0.00000,
Vertical Scale,5.000000e-01,, -12.420000000000,   0.00000,
Vertical Offset,0.000000e+00,, -12.410000000000,   0.02000,
Horizontal Units,s,, -12.400000000000,   0.02000,
Horizontal Scale,2.500000e+00,, -12.390000000000,   0.00000,
Pt Fmt,Y,, -12.380000000000,   0.02000,
Yzero,0.000000e+00,, -12.370000000000,   0.02000,
Probe Atten,1.000000e+00,, -12.360000000000,   0.00000,
Model Number,TBS1052B-EDU,, -12.350000000000,   0.02000,
Serial Number,C010549,, -12.340000000000,   0.00000,
Firmware Version,FV:v2.00,, -12.330000000000,   0.02000,
,,,-012.320000000000,   0.02000,
,,,-012.310000000000,   0.02000,
,,,-012.300000000000,   0.04000,
,,,-012.290000000000,   0.02000,
,,,-012.280000000000,   0.02000,
,,,-012.270000000000,   0.02000,
,,,-012.260000000000,   0.02000,
,,,-012.250000000000,   0.02000,
,,,-012.240000000000,   0.00000,
,,,-012.230000000000,   0.02000,
,,,-012.220000000000,   0.02000,
,,,-012.210000000000,   0.02000,
,,,-012.200000000000,   0.02000,
,,,-012.190000000000,   0.02000,
,,,-012.180000000000,   0.02000,
,,,-012.170000000000,   0.02000,
,,,-012.160000000000,   0.02000,
,,,-012.150000000000,   0.00000,
,,,-012.140000000000,   0.02000,
,,,-012.130000000000,   0.02000,
,,,-012.120000000000,   0.02000,
,,,-012.110000000000,   0.02000,
,,,-012.100000000000,   0.02000,
,,,-012.090000000000,   0.02000,
,,,-012.080000000000,   0.00000,
,,,-012.070000000000,   0.02000,
,,,-012.060000000000,   0.02000,
,,,-012.050000000000,   0.02000,
,,,-012.040000000000,   0.02000,
,,,-012.030000000000,   0.00000,
,,,-012.020000000000,   0.00000,
,,,-012.010000000000,   0.02000,
,,,-012.000000000000,   0.02000,
,,,-011.990000000000,   0.02000,
,,,-011.980000000000,   0.02000,
,,,-011.970000000000,   0.02000,
,,,-011.960000000000,   0.02000,
,,,-011.950000000000,   0.02000,
,,,-011.940000000000,   0.02000,
,,,-011.930000000000,   0.02000,
,,,-011.920000000000,   0.02000,
,,,-011.910000000000,   0.00000,
,,,-011.900000000000,   0.00000,
,,,-011.890000000000,   0.02000,
,,,-011.880000000000,   0.00000,
,,,-011.870000000000,   0.02000,
,,,-011.860000000000,   0.02000,
,,,-011.850000000000,   0.02000,
,,,-011.840000000000,   0.02000,
,,,-011.830000000000,   0.02000,
,,,-011.820000000000,   0.02000,
,,,-011.810000000000,   0.02000,
,,,-011.800000000000,   0.02000,
,,,-011.790000000000,   0.02000,
,,,-011.780000000000,   0.00000,
,,,-011.770000000000,   0.02000,
,,,-011.760000000000,   0.02000,
,,,-011.750000000000,   0.00000,
,,,-011.740000000000,   0.02000,
,,,-011.730000000000,   0.02000,
,,,-011.720000000000,   0.00000,
,,,-011.710000000000,   0.02000,
,,,-011.700000000000,   0.02000,
,,,-011.690000000000,   0.02000,
,,,-011.680000000000,   0.02000,
,,,-011.670000000000,   0.02000,
,,,-011.660000000000,   0.02000,
,,,-011.650000000000,   0.02000,
,,,-011.640000000000,   0.02000,
,,,-011.630000000000,   0.02000,
,,,-011.620000000000,   0.02000,
,,,-011.610000000000,   0.04000,
,,,-011.600000000000,   0.02000,
,,,-011.590000000000,   0.02000,
,,,-011.580000000000,   0.02000,
,,,-011.570000000000,   0.02000,
,,,-011.560000000000,   0.02000,
,,,-011.550000000000,   0.02000,
,,,-011.540000000000,   0.02000,
,,,-011.530000000000,   0.02000,
,,,-011.520000000000,   0.02000,
,,,-011.510000000000,   0.02000,
,,,-011.500000000000,   0.02000,
,,,-011.490000000000,   0.02000,
,,,-011.480000000000,   0.02000,
,,,-011.470000000000,   0.02000,
,,,-011.460000000000,   0.02000,
,,,-011.450000000000,   0.00000,
,,,-011.440000000000,   0.02000,
,,,-011.430000000000,   0.02000,
,,,-011.420000000000,   0.02000,
,,,-011.410000000000,   0.02000,
,,,-011.400000000000,   0.02000,
,,,-011.390000000000,   0.00000,
,,,-011.380000000000,   0.02000,
,,,-011.370000000000,   0.02000,
,,,-011.360000000000,   0.02000,
,,,-011.350000000000,   0.02000,
,,,-011.340000000000,   0.00000,
,,,-011.330000000000,   0.02000,
,,,-011.320000000000,   0.02000,
,,,-011.310000000000,   0.02000,
,,,-011.300000000000,   0.04000,
,,,-011.290000000000,   0.02000,
,,,-011.280000000000,   0.02000,
,,,-011.270000000000,   0.02000,
,,,-011.260000000000,   0.02000,
,,,-011.250000000000,   0.02000,
,,,-011.240000000000,   0.00000,
,,,-011.230000000000,   0.02000,
,,,-011.220000000000,   0.02000,
,,,-011.210000000000,   0.02000,
,,,-011.200000000000,   0.02000,
,,,-011.190000000000,   0.02000,
,,,-011.180000000000,   0.02000,
,,,-011.170000000000,   0.02000,
,,,-011.160000000000,   0.02000,
,,,-011.150000000000,   0.00000,
,,,-011.140000000000,   0.02000,
,,,-011.130000000000,   0.02000,
,,,-011.120000000000,   0.02000,
,,,-011.110000000000,   0.02000,
,,,-011.100000000000,   0.04000,
,,,-011.090000000000,   0.02000,
,,,-011.080000000000,   0.02000,
,,,-011.070000000000,   0.02000,
,,,-011.060000000000,   0.02000,
,,,-011.050000000000,   0.00000,
,,,-011.040000000000,   0.02000,
,,,-011.030000000000,   0.02000,
,,,-011.020000000000,   0.00000,
,,,-011.010000000000,   0.02000,
,,,-011.000000000000,   0.00000,
,,,-010.990000000000,   0.02000,
,,,-010.980000000000,   0.02000,
,,,-010.970000000000,   0.02000,
,,,-010.960000000000,   0.02000,
,,,-010.950000000000,   0.02000,
,,,-010.940000000000,   0.02000,
,,,-010.930000000000,   0.02000,
,,,-010.920000000000,   0.02000,
,,,-010.910000000000,   0.02000,
,,,-010.900000000000,   0.02000,
,,,-010.890000000000,   0.02000,
,,,-010.880000000000,   0.00000,
,,,-010.870000000000,   0.02000,
,,,-010.860000000000,   0.00000,
,,,-010.850000000000,   0.02000,
,,,-010.840000000000,   0.00000,
,,,-010.830000000000,   0.00000,
,,,-010.820000000000,   0.00000,
,,,-010.810000000000,   0.02000,
,,,-010.800000000000,   0.02000,
,,,-010.790000000000,   0.02000,
,,,-010.780000000000,   0.02000,
,,,-010.770000000000,   0.02000,
,,,-010.760000000000,   0.02000,
,,,-010.750000000000,   0.04000,
,,,-010.740000000000,   0.02000,
,,,-010.730000000000,   0.02000,
,,,-010.720000000000,   0.02000,
,,,-010.710000000000,   0.02000,
,,,-010.700000000000,   0.02000,
,,,-010.690000000000,   0.02000,
,,,-010.680000000000,   0.02000,
,,,-010.670000000000,   0.02000,
,,,-010.660000000000,   0.02000,
,,,-010.650000000000,   0.02000,
,,,-010.640000000000,   0.02000,
,,,-010.630000000000,   0.02000,
,,,-010.620000000000,   0.02000,
,,,-010.610000000000,   0.02000,
,,,-010.600000000000,   0.02000,
,,,-010.590000000000,   0.02000,
,,,-010.580000000000,   0.02000,
,,,-010.570000000000,   0.02000,
,,,-010.560000000000,   0.02000,
,,,-010.550000000000,   0.02000,
,,,-010.540000000000,   0.02000,
,,,-010.530000000000,   0.02000,
,,,-010.520000000000,   0.02000,
,,,-010.510000000000,   0.02000,
,,,-010.500000000000,   0.00000,
,,,-010.490000000000,   0.02000,
,,,-010.480000000000,   0.00000,
,,,-010.470000000000,   0.02000,
,,,-010.460000000000,   0.02000,
,,,-010.450000000000,   0.04000,
,,,-010.440000000000,   0.02000,
,,,-010.430000000000,   0.02000,
,,,-010.420000000000,   0.02000,
,,,-010.410000000000,   0.02000,
,,,-010.400000000000,   0.02000,
,,,-010.390000000000,   0.00000,
,,,-010.380000000000,   0.02000,
,,,-010.370000000000,   0.02000,
,,,-010.360000000000,   0.02000,
,,,-010.350000000000,   0.02000,
,,,-010.340000000000,   0.02000,
,,,-010.330000000000,   0.02000,
,,,-010.320000000000,   0.02000,
,,,-010.310000000000,   0.02000,
,,,-010.300000000000,   0.04000,
,,,-010.290000000000,   0.02000,
,,,-010.280000000000,   0.02000,
,,,-010.270000000000,   0.02000,
,,,-010.260000000000,   0.02000,
,,,-010.250000000000,   0.02000,
,,,-010.240000000000,   0.02000,
,,,-010.230000000000,   0.02000,
,,,-010.220000000000,   0.02000,
,,,-010.210000000000,   0.02000,
,,,-010.200000000000,   0.02000,
,,,-010.190000000000,   0.02000,
,,,-010.180000000000,   0.00000,
,,,-010.170000000000,   0.00000,
,,,-010.160000000000,   0.02000,
,,,-010.150000000000,   0.02000,
,,,-010.140000000000,   0.02000,
,,,-010.130000000000,   0.02000,
,,,-010.120000000000,   0.02000,
,,,-010.110000000000,   0.02000,
,,,-010.100000000000,   0.02000,
,,,-010.090000000000,   0.02000,
,,,-010.080000000000,   0.02000,
,,,-010.070000000000,   0.02000,
,,,-010.060000000000,   0.02000,
,,,-010.050000000000,   0.02000,
,,,-010.040000000000,   0.02000,
,,,-010.030000000000,   0.00000,
,,,-010.020000000000,   0.02000,
,,,-010.010000000000,   0.00000,
,,,-010.000000000000,   0.02000,
,,,-009.990000000000,   0.02000,
,,,-009.980000000000,   0.02000,
,,,-009.970000000000,   0.02000,
,,,-009.960000000000,   0.02000,
,,,-009.950000000000,   0.02000,
,,,-009.940000000000,   0.02000,
,,,-009.930000000000,   0.02000,
,,,-009.920000000000,   0.02000,
,,,-009.910000000000,   0.02000,
,,,-009.900000000000,   0.02000,
,,,-009.890000000000,   0.02000,
,,,-009.880000000000,   0.02000,
,,,-009.870000000000,   0.02000,
,,,-009.860000000000,   0.04000,
,,,-009.850000000000,   0.02000,
,,,-009.840000000000,   0.02000,
,,,-009.830000000000,   0.02000,
,,,-009.820000000000,   0.02000,
,,,-009.810000000000,   0.00000,
,,,-009.800000000000,   0.02000,
,,,-009.790000000000,   0.02000,
,,,-009.780000000000,   0.02000,
,,,-009.770000000000,   0.02000,
,,,-009.760000000000,   0.00000,
,,,-009.750000000000,   0.02000,
,,,-009.740000000000,   0.02000,
,,,-009.730000000000,   0.02000,
,,,-009.720000000000,   0.02000,
,,,-009.710000000000,   0.02000,
,,,-009.700000000000,   0.02000,
,,,-009.690000000000,   0.00000,
,,,-009.680000000000,   0.02000,
,,,-009.670000000000,   0.02000,
,,,-009.660000000000,   0.02000,
,,,-009.650000000000,   0.02000,
,,,-009.640000000000,   0.00000,
,,,-009.630000000000,   0.02000,
,,,-009.620000000000,   0.02000,
,,,-009.610000000000,   0.00000,
,,,-009.600000000000,   0.00000,
,,,-009.590000000000,   0.02000,
,,,-009.580000000000,   0.02000,
,,,-009.570000000000,   0.02000,
,,,-009.560000000000,   0.02000,
,,,-009.550000000000,   0.02000,
,,,-009.540000000000,   0.04000,
,,,-009.530000000000,   0.02000,
,,,-009.520000000000,   0.02000,
,,,-009.510000000000,   0.00000,
,,,-009.500000000000,   0.02000,
,,,-009.490000000000,   0.02000,
,,,-009.480000000000,   0.02000,
,,,-009.470000000000,   0.02000,
,,,-009.460000000000,   0.00000,
,,,-009.450000000000,   0.00000,
,,,-009.440000000000,   0.00000,
,,,-009.430000000000,   0.02000,
,,,-009.420000000000,   0.02000,
,,,-009.410000000000,   0.02000,
,,,-009.400000000000,   0.02000,
,,,-009.390000000000,   0.02000,
,,,-009.380000000000,   0.04000,
,,,-009.370000000000,   0.02000,
,,,-009.360000000000,   0.02000,
,,,-009.350000000000,   0.02000,
,,,-009.340000000000,   0.00000,
,,,-009.330000000000,   0.02000,
,,,-009.320000000000,   0.02000,
,,,-009.310000000000,   0.00000,
,,,-009.300000000000,   0.02000,
,,,-009.290000000000,   0.02000,
,,,-009.280000000000,   0.00000,
,,,-009.270000000000,   0.00000,
,,,-009.260000000000,   0.02000,
,,,-009.250000000000,   0.02000,
,,,-009.240000000000,   0.02000,
,,,-009.230000000000,   0.04000,
,,,-009.220000000000,   0.04000,
,,,-009.210000000000,   0.04000,
,,,-009.200000000000,   0.04000,
,,,-009.190000000000,   0.02000,
,,,-009.180000000000,   0.02000,
,,,-009.170000000000,   0.02000,
,,,-009.160000000000,   0.02000,
,,,-009.150000000000,   0.02000,
,,,-009.140000000000,   0.02000,
,,,-009.130000000000,   0.02000,
,,,-009.120000000000,   0.02000,
,,,-009.110000000000,   0.02000,
,,,-009.100000000000,   0.00000,
,,,-009.090000000000,   0.04000,
,,,-009.080000000000,   0.02000,
,,,-009.070000000000,   0.02000,
,,,-009.060000000000,   0.04000,
,,,-009.050000000000,   0.04000,
,,,-009.040000000000,   0.04000,
,,,-009.030000000000,   0.02000,
,,,-009.020000000000,   0.04000,
,,,-009.010000000000,   0.02000,
,,,-009.000000000000,   0.02000,
,,,-008.990000000000,   0.02000,
,,,-008.980000000000,   0.02000,
,,,-008.970000000000,   0.02000,
,,,-008.960000000000,   0.02000,
,,,-008.950000000000,   0.02000,
,,,-008.940000000000,   0.02000,
,,,-008.930000000000,   0.02000,
,,,-008.920000000000,   0.04000,
,,,-008.910000000000,   0.04000,
,,,-008.900000000000,   0.02000,
,,,-008.890000000000,   0.04000,
,,,-008.880000000000,   0.04000,
,,,-008.870000000000,   0.02000,
,,,-008.860000000000,   0.02000,
,,,-008.850000000000,   0.02000,
,,,-008.840000000000,   0.02000,
,,,-008.830000000000,   0.02000,
,,,-008.820000000000,   0.00000,
,,,-008.810000000000,   0.02000,
,,,-008.800000000000,   0.02000,
,,,-008.790000000000,   0.02000,
,,,-008.780000000000,   0.02000,
,,,-008.770000000000,   0.04000,
,,,-008.760000000000,   0.02000,
,,,-008.750000000000,   0.02000,
,,,-008.740000000000,   0.04000,
,,,-008.730000000000,   0.04000,
,,,-008.720000000000,   0.04000,
,,,-008.710000000000,   0.04000,
,,,-008.700000000000,   0.02000,
,,,-008.690000000000,   0.02000,
,,,-008.680000000000,   0.02000,
,,,-008.670000000000,   0.02000,
,,,-008.660000000000,   0.02000,
,,,-008.650000000000,   0.00000,
,,,-008.640000000000,   0.00000,
,,,-008.630000000000,   0.02000,
,,,-008.620000000000,   0.02000,
,,,-008.610000000000,   0.02000,
,,,-008.600000000000,   0.02000,
,,,-008.590000000000,   0.02000,
,,,-008.580000000000,   0.02000,
,,,-008.570000000000,   0.04000,
,,,-008.560000000000,   0.02000,
,,,-008.550000000000,   0.04000,
,,,-008.540000000000,   0.02000,
,,,-008.530000000000,   0.02000,
,,,-008.520000000000,   0.00000,
,,,-008.510000000000,   0.02000,
,,,-008.500000000000,   0.00000,
,,,-008.490000000000,   0.02000,
,,,-008.480000000000,   0.00000,
,,,-008.470000000000,   0.02000,
,,,-008.460000000000,   0.02000,
,,,-008.450000000000,   0.02000,
,,,-008.440000000000,   0.02000,
,,,-008.430000000000,   0.02000,
,,,-008.420000000000,   0.02000,
,,,-008.410000000000,   0.02000,
,,,-008.400000000000,   0.02000,
,,,-008.390000000000,   0.02000,
,,,-008.380000000000,   0.02000,
,,,-008.370000000000,   0.02000,
,,,-008.360000000000,   0.02000,
,,,-008.350000000000,   0.02000,
,,,-008.340000000000,   0.02000,
,,,-008.330000000000,   0.00000,
,,,-008.320000000000,   0.02000,
,,,-008.310000000000,   0.02000,
,,,-008.300000000000,   0.00000,
,,,-008.290000000000,   0.02000,
,,,-008.280000000000,   0.02000,
,,,-008.270000000000,   0.04000,
,,,-008.260000000000,   0.02000,
,,,-008.250000000000,   0.02000,
,,,-008.240000000000,   0.02000,
,,,-008.230000000000,   0.02000,
,,,-008.220000000000,   0.02000,
,,,-008.210000000000,   0.02000,
,,,-008.200000000000,   0.02000,
,,,-008.190000000000,   0.02000,
,,,-008.180000000000,   0.00000,
,,,-008.170000000000,   0.02000,
,,,-008.160000000000,   0.00000,
,,,-008.150000000000,   0.02000,
,,,-008.140000000000,   0.00000,
,,,-008.130000000000,   0.02000,
,,,-008.120000000000,   0.02000,
,,,-008.110000000000,   0.02000,
,,,-008.100000000000,   0.02000,
,,,-008.090000000000,   0.02000,
,,,-008.080000000000,   0.02000,
,,,-008.070000000000,   0.02000,
,,,-008.060000000000,   0.02000,
,,,-008.050000000000,   0.02000,
,,,-008.040000000000,   0.02000,
,,,-008.030000000000,   0.02000,
,,,-008.020000000000,   0.02000,
,,,-008.010000000000,   0.02000,
,,,-008.000000000000,   0.02000,
,,,-007.990000000000,   0.02000,
,,,-007.980000000000,   0.02000,
,,,-007.970000000000,   0.04000,
,,,-007.960000000000,   0.02000,
,,,-007.950000000000,   0.02000,
,,,-007.940000000000,   0.02000,
,,,-007.930000000000,   0.02000,
,,,-007.920000000000,   0.02000,
,,,-007.910000000000,   0.02000,
,,,-007.900000000000,   0.02000,
,,,-007.890000000000,   0.00000,
,,,-007.880000000000,   0.00000,
,,,-007.870000000000,   0.02000,
,,,-007.860000000000,   0.02000,
,,,-007.850000000000,   0.02000,
,,,-007.840000000000,   0.02000,
,,,-007.830000000000,   0.02000,
,,,-007.820000000000,   0.02000,
,,,-007.810000000000,   0.02000,
,,,-007.800000000000,   0.02000,
,,,-007.790000000000,   0.02000,
,,,-007.780000000000,   0.02000,
,,,-007.770000000000,   0.02000,
,,,-007.760000000000,   0.00000,
,,,-007.750000000000,   0.00000,
,,,-007.740000000000,   0.02000,
,,,-007.730000000000,   0.02000,
,,,-007.720000000000,   0.02000,
,,,-007.710000000000,   0.02000,
,,,-007.700000000000,   0.02000,
,,,-007.690000000000,   0.02000,
,,,-007.680000000000,   0.02000,
,,,-007.670000000000,   0.02000,
,,,-007.660000000000,   0.02000,
,,,-007.650000000000,   0.02000,
,,,-007.640000000000,   0.02000,
,,,-007.630000000000,   0.02000,
,,,-007.620000000000,   0.02000,
,,,-007.610000000000,   0.02000,
,,,-007.600000000000,   0.02000,
,,,-007.590000000000,   0.02000,
,,,-007.580000000000,   0.02000,
,,,-007.570000000000,   0.00000,
,,,-007.560000000000,   0.02000,
,,,-007.550000000000,   0.02000,
,,,-007.540000000000,   0.02000,
,,,-007.530000000000,   0.02000,
,,,-007.520000000000,   0.02000,
,,,-007.510000000000,   0.04000,
,,,-007.500000000000,   0.04000,
,,,-007.490000000000,   0.04000,
,,,-007.480000000000,   0.04000,
,,,-007.470000000000,   0.02000,
,,,-007.460000000000,   0.00000,
,,,-007.450000000000,   0.00000,
,,,-007.440000000000,   0.02000,
,,,-007.430000000000,   0.02000,
,,,-007.420000000000,   0.02000,
,,,-007.410000000000,   0.02000,
,,,-007.400000000000,   0.02000,
,,,-007.390000000000,   0.02000,
,,,-007.380000000000,   0.02000,
,,,-007.370000000000,   0.02000,
,,,-007.360000000000,   0.02000,
,,,-007.350000000000,   0.02000,
,,,-007.340000000000,   0.02000,
,,,-007.330000000000,   0.04000,
,,,-007.320000000000,   0.02000,
,,,-007.310000000000,   0.02000,
,,,-007.300000000000,   0.02000,
,,,-007.290000000000,   0.02000,
,,,-007.280000000000,   0.00000,
,,,-007.270000000000,   0.02000,
,,,-007.260000000000,   0.00000,
,,,-007.250000000000,   0.02000,
,,,-007.240000000000,   0.02000,
,,,-007.230000000000,   0.02000,
,,,-007.220000000000,   0.02000,
,,,-007.210000000000,   0.06000,
,,,-007.200000000000,   0.08000,
,,,-007.190000000000,   0.10000,
,,,-007.180000000000,   0.14000,
,,,-007.170000000000,   0.14000,
,,,-007.160000000000,   0.18000,
,,,-007.150000000000,   0.20000,
,,,-007.140000000000,   0.20000,
,,,-007.130000000000,   0.24000,
,,,-007.120000000000,   0.26000,
,,,-007.110000000000,   0.26000,
,,,-007.100000000000,   0.30000,
,,,-007.090000000000,   0.30000,
,,,-007.080000000000,   0.32000,
,,,-007.070000000000,   0.34000,
,,,-007.060000000000,   0.36000,
,,,-007.050000000000,   0.38000,
,,,-007.040000000000,   0.38000,
,,,-007.030000000000,   0.40000,
,,,-007.020000000000,   0.42000,
,,,-007.010000000000,   0.44000,
,,,-007.000000000000,   0.44000,
,,,-006.990000000000,   0.46000,
,,,-006.980000000000,   0.48000,
,,,-006.970000000000,   0.48000,
,,,-006.960000000000,   0.48000,
,,,-006.950000000000,   0.48000,
,,,-006.940000000000,   0.50000,
,,,-006.930000000000,   0.50000,
,,,-006.920000000000,   0.50000,
,,,-006.910000000000,   0.50000,
,,,-006.900000000000,   0.50000,
,,,-006.890000000000,   0.52000,
,,,-006.880000000000,   0.52000,
,,,-006.870000000000,   0.52000,
,,,-006.860000000000,   0.52000,
,,,-006.850000000000,   0.52000,
,,,-006.840000000000,   0.54000,
,,,-006.830000000000,   0.50000,
,,,-006.820000000000,   0.50000,
,,,-006.810000000000,   0.50000,
,,,-006.800000000000,   0.50000,
,,,-006.790000000000,   0.46000,
,,,-006.780000000000,   0.46000,
,,,-006.770000000000,   0.44000,
,,,-006.760000000000,   0.44000,
,,,-006.750000000000,   0.44000,
,,,-006.740000000000,   0.42000,
,,,-006.730000000000,   0.40000,
,,,-006.720000000000,   0.40000,
,,,-006.710000000000,   0.40000,
,,,-006.700000000000,   0.38000,
,,,-006.690000000000,   0.36000,
,,,-006.680000000000,   0.34000,
,,,-006.670000000000,   0.34000,
,,,-006.660000000000,   0.30000,
,,,-006.650000000000,   0.30000,
,,,-006.640000000000,   0.26000,
,,,-006.630000000000,   0.24000,
,,,-006.620000000000,   0.24000,
,,,-006.610000000000,   0.20000,
,,,-006.600000000000,   0.18000,
,,,-006.590000000000,   0.16000,
,,,-006.580000000000,   0.14000,
,,,-006.570000000000,   0.12000,
,,,-006.560000000000,   0.10000,
,,,-006.550000000000,   0.10000,
